{
    "name": "_AuthoritativeInventory.Editor",
    "references": [
        "GUID:36f33cd61ebad8446a466764a9cb44de",
        "GUID:30817c1a0e6d646d99c048fc403f5979"
    ],
    "optionalUnityReferences": [],
    "includePlatforms": [
        "Editor"
    ],
    "excludePlatforms": [],
    "allowUnsafeCode": false,
    "overrideReferences": false,
    "precompiledReferences": [],
    "autoReferenced": true,
    "defineConstraints": [],
    "versionDefines": []
}